Iteration with purrr
…
## -- Attaching packages ---------------------------------- tidyverse 1.2.1 --

## <U+221A> ggplot2 3.0.0     <U+221A> purrr   0.2.5
## <U+221A> tibble  1.4.2     <U+221A> dplyr   0.7.6
## <U+221A> tidyr   0.8.1     <U+221A> stringr 1.3.1
## <U+221A> readr   1.1.1     <U+221A> forcats 0.3.0

## -- Conflicts ------------------------------------- tidyverse_conflicts() --
## x dplyr::filter() masks stats::filter()
## x dplyr::lag()    masks stats::lag()

data("starwars")
starwars

## # A tibble: 87 x 13
##    name  height  mass hair_color skin_color eye_color birth_year gender
##    <chr>  <int> <dbl> <chr>      <chr>      <chr>          <dbl> <chr> 
##  1 Luke~    172    77 blond      fair       blue            19   male  
##  2 C-3PO    167    75 <NA>       gold       yellow         112   <NA>  
##  3 R2-D2     96    32 <NA>       white, bl~ red             33   <NA>  
##  4 Dart~    202   136 none       white      yellow          41.9 male  
##  5 Leia~    150    49 brown      light      brown           19   female
##  6 Owen~    178   120 brown, gr~ light      blue            52   male  
##  7 Beru~    165    75 brown      light      blue            47   female
##  8 R5-D4     97    32 <NA>       white, red red             NA   <NA>  
##  9 Bigg~    183    84 black      light      brown           24   male  
## 10 Obi-~    182    77 auburn, w~ fair       blue-gray       57   male  
## # ... with 77 more rows, and 5 more variables: homeworld <chr>,
## #   species <chr>, films <list>, vehicles <list>, starships <list>

Lets say we want to write a sentence that describes how tall each character is

starwars %>% 
    select(name, hair_color) %>% 
    mutate(sentence = paste("This character has", hair_color, "hair"))

## # A tibble: 87 x 3
##    name               hair_color    sentence                             
##    <chr>              <chr>         <chr>                                
##  1 Luke Skywalker     blond         This character has blond hair        
##  2 C-3PO              <NA>          This character has NA hair           
##  3 R2-D2              <NA>          This character has NA hair           
##  4 Darth Vader        none          This character has none hair         
##  5 Leia Organa        brown         This character has brown hair        
##  6 Owen Lars          brown, grey   This character has brown, grey hair  
##  7 Beru Whitesun lars brown         This character has brown hair        
##  8 R5-D4              <NA>          This character has NA hair           
##  9 Biggs Darklighter  black         This character has black hair        
## 10 Obi-Wan Kenobi     auburn, white This character has auburn, white hair
## # ... with 77 more rows
…
    return(paste("This character has", hair_color, "hair"))
}

We should be able to use this function the way we used paste earlier

starwars %>% 
    select(name, hair_color) %>% 
    mutate(sentence = hair_sentence(hair_color))

## Warning in if (is.na(hair_color)) {: the condition has length > 1 and only
## the first element will be used

## # A tibble: 87 x 3
##    name               hair_color    sentence                             
##    <chr>              <chr>         <chr>                                
##  1 Luke Skywalker     blond         This character has blond hair        
##  2 C-3PO              <NA>          This character has NA hair           
##  3 R2-D2              <NA>          This character has NA hair           
##  4 Darth Vader        none          This character has none hair         
##  5 Leia Organa        brown         This character has brown hair        
##  6 Owen Lars          brown, grey   This character has brown, grey hair  
##  7 Beru Whitesun lars brown         This character has brown hair        
##  8 R5-D4              <NA>          This character has NA hair           
##  9 Biggs Darklighter  black         This character has black hair        
## 10 Obi-Wan Kenobi     auburn, white This character has auburn, white hair
## # ... with 77 more rows

Alas, no! Something weird happened. The sentences for characters without hair didnt change.

This is because the function wasnt properly vectorized, which means that you can do something to an entire vector of values at the same time.

One way to deal with this problem is to use the map function. We can take the hair_color vector and apply the hair_sentence function to each of its elements:

starwars %>% 
    select(name, hair_color) %>% 
    mutate(sentence = map(hair_color, hair_sentence))

## # A tibble: 87 x 3
##    name               hair_color    sentence 
##    <chr>              <chr>         <list>   
##  1 Luke Skywalker     blond         <chr [1]>
##  2 C-3PO              <NA>          <chr [1]>
##  3 R2-D2              <NA>          <chr [1]>
##  4 Darth Vader        none          <chr [1]>
##  5 Leia Organa        brown         <chr [1]>
##  6 Owen Lars          brown, grey   <chr [1]>
##  7 Beru Whitesun lars brown         <chr [1]>
##  8 R5-D4              <NA>          <chr [1]>
##  9 Biggs Darklighter  black         <chr [1]>
## 10 Obi-Wan Kenobi     auburn, white <chr [1]>
## # ... with 77 more rows

Since we didnt define an output type, it returns a list of character vectors. This is more or less what lapply does.

If you know the type of your output, you can also specify it directly:

starwars %>% 
    select(name, hair_color) %>% 
    mutate(sentence = map_chr(hair_color, hair_sentence))

## # A tibble: 87 x 3
##    name               hair_color    sentence                             
##    <chr>              <chr>         <chr>                                
##  1 Luke Skywalker     blond         This character has blond hair        
##  2 C-3PO              <NA>          This character has no hair.          
##  3 R2-D2              <NA>          This character has no hair.          
##  4 Darth Vader        none          This character has none hair         
##  5 Leia Organa        brown         This character has brown hair        
##  6 Owen Lars          brown, grey   This character has brown, grey hair  
##  7 Beru Whitesun lars brown         This character has brown hair        
##  8 R5-D4              <NA>          This character has no hair.          
##  9 Biggs Darklighter  black         This character has black hair        
## 10 Obi-Wan Kenobi     auburn, white This character has auburn, white hair
## # ... with 77 more rows
…
    return(paste("This character has", hair_color, "hair"))
}

If we dont supply a parameter, the function will just use the defaults. If we do want to use caps = TRUE we can do it in two ways:

Supply the parameter as the 3rd argument in the map function.

starwars %>% 
    select(name, hair_color) %>% 
    mutate(sentence = map_chr(hair_color, hair_sentence, caps = TRUE))

## # A tibble: 87 x 3
##    name               hair_color    sentence                             
##    <chr>              <chr>         <chr>                                
##  1 Luke Skywalker     blond         This character has blond hair        
##  2 C-3PO              <NA>          THIS CHARACTER HAS NO HAIR.          
##  3 R2-D2              <NA>          THIS CHARACTER HAS NO HAIR.          
##  4 Darth Vader        none          This character has none hair         
##  5 Leia Organa        brown         This character has brown hair        
##  6 Owen Lars          brown, grey   This character has brown, grey hair  
##  7 Beru Whitesun lars brown         This character has brown hair        
##  8 R5-D4              <NA>          THIS CHARACTER HAS NO HAIR.          
##  9 Biggs Darklighter  black         This character has black hair        
## 10 Obi-Wan Kenobi     auburn, white This character has auburn, white hair
## # ... with 77 more rows

Define all parameters for the function explicitly using ~ to represent a function and .x to represent each element of hair_color.

starwars %>% 
    select(name, hair_color) %>% 
    mutate(sentence = map_chr(hair_color, 
                              ~hair_sentence(.x, caps = TRUE)))

## # A tibble: 87 x 3
##    name               hair_color    sentence                             
##    <chr>              <chr>         <chr>                                
##  1 Luke Skywalker     blond         This character has blond hair        
##  2 C-3PO              <NA>          THIS CHARACTER HAS NO HAIR.          
##  3 R2-D2              <NA>          THIS CHARACTER HAS NO HAIR.          
##  4 Darth Vader        none          This character has none hair         
##  5 Leia Organa        brown         This character has brown hair        
##  6 Owen Lars          brown, grey   This character has brown, grey hair  
##  7 Beru Whitesun lars brown         This character has brown hair        
##  8 R5-D4              <NA>          THIS CHARACTER HAS NO HAIR.          
##  9 Biggs Darklighter  black         This character has black hair        
## 10 Obi-Wan Kenobi     auburn, white This character has auburn, white hair
## # ... with 77 more rows
…
